<!--?xml version="1.0" encoding="utf-8"?-->
<!-- Generator: Adobe Illustrator 18.1.1, SVG Export Plug-In . SVG Version: 6.00 Build 0)  -->

<svg version="1.1" id="_x32_" xmlns="http://www.w3.org/2000/svg" xmlns:xlink="http://www.w3.org/1999/xlink" x="0px" y="0px" viewBox="0 0 512 512" style="width: 256px; height: 256px; opacity: 1;" xml:space="preserve">
<style type="text/css">
	.st0{fill:#4B4B4B;}
</style>
<g>
	<path class="st0" d="M504.357,369.342c28.552-102.165-26.231-181.813-108.749-219.062c-23.874-29.37-40.923-75.081-74.437-86.253
		c-32.898-10.97-16.618,39.938-31.034,63.21c-1.24-0.014-2.494-0.236-3.714-0.042c-90.293,14.062-153.933,60.39-189.38,132.076
		c-13.798,22.162-16.736,33.23-32.814,47.541C35.177,332.702,10.139,362.599,0,386.265c44.041,6.278,80.542-11.962,80.542-11.962
		c18.254,23.861,53.896,39.592,58.969,37.901c18.246-37.901-36.501-75.816,30.888-129.15c29.01-12.232,45.614-21.061,79.08-21.061
		c9.321,0,33.113,2.252,44.152,6.411c4.851-5.738,9.356-11.463,13.063-16.979l6.944,4.774c-3.438,5.108-7.471,10.333-11.816,15.566
		c-4.733,5.669-9.826,11.352-14.907,16.896c-27.236,29.695-54.388,55.427-24.692,55.427c50.916,0,90.508-8.906,114.736-18.684
		c2.211,2.037,4.442,4.123,6.708,6.258c6.362,5.988,12.877,12.246,19.627,18.746c16.736,16.113,44.291,30.728,51.325,53.203
		c20.27,64.707,58.165,49.966,49.738,22.592C495.95,398.83,494.689,404.007,504.357,369.342z M452.526,331.774
		c-6.002,0-10.867-4.866-10.867-10.86c0-6.002,4.864-10.853,10.867-10.853c5.994,0,10.846,4.851,10.846,10.853
		C463.372,326.908,458.52,331.774,452.526,331.774z" style="fill: rgb(75, 75, 75);"></path>
</g>
</svg>
